[{
		"id" : "a69eb52.8e36548",
		"type" : "change",
		"z" : "597316df.105498",
		"name" : "Loading_area",
		"rules" : [{
				"t" : "set",
				"p" : "payload",
				"pt" : "msg",
				"to" : "Loading_area",
				"tot" : "str"
			}
		],
		"action" : "",
		"property" : "",
		"from" : "",
		"to" : "",
		"reg" : false,
		"x" : 583.5,
		"y" : 129.39999389648438,
		"wires" : [["fbb7d74d.fa7ea"]]
	}, {
		"id" : "e6238982.9c3c",
		"type" : "switch",
		"z" : "597316df.105498",
		"name" : "Switch location",
		"property" : "payload.location",
		"propertyType" : "msg",
		"rules" : [{
				"t" : "eq",
				"v" : "ASD",
				"vt" : "str"
			}, {
				"t" : "eq",
				"v" : "QWE",
				"vt" : "str"
			}
		],
		"checkall" : "true",
		"outputs" : 2,
		"x" : 380.5,
		"y" : 247.20001220703125,
		"wires" : [["a69eb52.8e36548"], ["cd4ca7e9.49192"]]
	}, {
		"id" : "fbb7d74d.fa7ea",
		"type" : "join",
		"z" : "597316df.105498",
		"name" : "",
		"mode" : "custom",
		"build" : "object",
		"property" : "payload",
		"propertyType" : "msg",
		"key" : "topic",
		"joiner" : "",
		"timeout" : "",
		"count" : "3",
		"x" : 842.4999847412109,
		"y" : 451.40000915527344,
		"wires" : [["d7821320.2a7c8", "973e181a.9e7f4"]]
	}, {
		"id" : "cd4ca7e9.49192",
		"type" : "change",
		"z" : "597316df.105498",
		"name" : "Shipping",
		"rules" : [{
				"t" : "set",
				"p" : "payload",
				"pt" : "msg",
				"to" : "Shipping",
				"tot" : "str"
			}
		],
		"action" : "",
		"property" : "",
		"from" : "",
		"to" : "",
		"reg" : false,
		"x" : 597.5,
		"y" : 269.4000244140625,
		"wires" : [["fbb7d74d.fa7ea"]]
	}, {
		"id" : "88f863b3.98ba5",
		"type" : "inject",
		"z" : "597316df.105498",
		"name" : "testInject",
		"topic" : "foobar",
		"payload" : "{\"location\": \"ASD\", \"weight\": \"1\", \"hooked\": true}",
		"payloadType" : "json",
		"repeat" : "",
		"crontab" : "",
		"once" : false,
		"x" : 85,
		"y" : 273.4000244140625,
		"wires" : [["294ba0e8.bc2708", "e6238982.9c3c", "b714791a.39f4c", "6921888.e350a78"]]
	}, {
		"id" : "b2bc14dc.80f2a",
		"type" : "inject",
		"z" : "597316df.105498",
		"name" : "InjectLocation",
		"topic" : "location",
		"payload" : "{\"location\": \"QWE\"}",
		"payloadType" : "json",
		"repeat" : "",
		"crontab" : "",
		"once" : false,
		"x" : 95,
		"y" : 140.39999389648438,
		"wires" : [["e6238982.9c3c"]]
	}, {
		"id" : "d7821320.2a7c8",
		"type" : "rbe",
		"z" : "597316df.105498",
		"name" : "",
		"func" : "rbe",
		"gap" : "",
		"start" : "",
		"inout" : "out",
		"x" : 875.5000152587891,
		"y" : 578,
		"wires" : [["29f9616f.e14aee"]]
	}, {
		"id" : "41e469bc.a13a",
		"type" : "change",
		"z" : "597316df.105498",
		"name" : "Unhooked",
		"rules" : [{
				"t" : "set",
				"p" : "payload",
				"pt" : "msg",
				"to" : "Unhooked",
				"tot" : "str"
			}
		],
		"action" : "",
		"property" : "",
		"from" : "",
		"to" : "",
		"reg" : false,
		"x" : 635.5,
		"y" : 561.6000366210938,
		"wires" : [["fbb7d74d.fa7ea"]]
	}, {
		"id" : "601a4d63.4b81c4",
		"type" : "change",
		"z" : "597316df.105498",
		"name" : "Hooked",
		"rules" : [{
				"t" : "set",
				"p" : "payload",
				"pt" : "msg",
				"to" : "Hooked",
				"tot" : "str"
			}
		],
		"action" : "",
		"property" : "",
		"from" : "",
		"to" : "",
		"reg" : false,
		"x" : 630.5,
		"y" : 478.5999755859375,
		"wires" : [["fbb7d74d.fa7ea"]]
	}, {
		"id" : "a8e44d18.cb61d8",
		"type" : "change",
		"z" : "597316df.105498",
		"name" : "Empty",
		"rules" : [{
				"t" : "set",
				"p" : "payload",
				"pt" : "msg",
				"to" : "Empty",
				"tot" : "str"
			}
		],
		"action" : "",
		"property" : "",
		"from" : "",
		"to" : "",
		"reg" : false,
		"x" : 595.5,
		"y" : 406.5999755859375,
		"wires" : [["fbb7d74d.fa7ea"]]
	}, {
		"id" : "56181a8a.3193a4",
		"type" : "change",
		"z" : "597316df.105498",
		"name" : "Full",
		"rules" : [{
				"t" : "set",
				"p" : "payload",
				"pt" : "msg",
				"to" : "Full",
				"tot" : "str"
			}
		],
		"action" : "",
		"property" : "",
		"from" : "",
		"to" : "",
		"reg" : false,
		"x" : 613.5,
		"y" : 335.5999755859375,
		"wires" : [["fbb7d74d.fa7ea"]]
	}, {
		"id" : "973e181a.9e7f4",
		"type" : "debug",
		"z" : "597316df.105498",
		"name" : "",
		"active" : true,
		"console" : "false",
		"complete" : "false",
		"x" : 1072.5,
		"y" : 253.5999755859375,
		"wires" : []
	}, {
		"id" : "294ba0e8.bc2708",
		"type" : "switch",
		"z" : "597316df.105498",
		"name" : "Switch weight",
		"property" : "payload.weight",
		"propertyType" : "msg",
		"rules" : [{
				"t" : "gt",
				"v" : "5",
				"vt" : "str"
			}, {
				"t" : "else"
			}
		],
		"checkall" : "true",
		"outputs" : 2,
		"x" : 380.5,
		"y" : 341.79998779296875,
		"wires" : [["56181a8a.3193a4"], ["a8e44d18.cb61d8"]]
	}, {
		"id" : "b714791a.39f4c",
		"type" : "switch",
		"z" : "597316df.105498",
		"name" : "Switch hooked",
		"property" : "payload.hooked",
		"propertyType" : "msg",
		"rules" : [{
				"t" : "eq",
				"v" : "1",
				"vt" : "num"
			}, {
				"t" : "else"
			}
		],
		"checkall" : "true",
		"outputs" : 2,
		"x" : 375.5,
		"y" : 481,
		"wires" : [["601a4d63.4b81c4"], ["41e469bc.a13a"]]
	}, {
		"id" : "6921888.e350a78",
		"type" : "template",
		"z" : "597316df.105498",
		"name" : "concat",
		"field" : "payload.status",
		"fieldType" : "msg",
		"format" : "handlebars",
		"syntax" : "mustache",
		"template" : "{{payload.weight}}{{payload.location}}",
		"x" : 254.49998474121094,
		"y" : 610.4000244140625,
		"wires" : [["11eb1771.b43ef9", "a76d6b2d.faf9e"]]
	}, {
		"id" : "29f9616f.e14aee",
		"type" : "template",
		"z" : "597316df.105498",
		"name" : "setStatus",
		"field" : "payload",
		"fieldType" : "msg",
		"format" : "handlebars",
		"syntax" : "mustache",
		"template" : "{{payload.weight}}{{payload.location}}{{payload.hooked}}",
		"x" : 1092.499984741211,
		"y" : 419.99998474121094,
		"wires" : [["973e181a.9e7f4"]]
	}, {
		"id" : "280400d7.45534",
		"type" : "inject",
		"z" : "597316df.105498",
		"name" : "InjectWeight",
		"topic" : "weight",
		"payload" : "{\"weight\": 14}",
		"payloadType" : "json",
		"repeat" : "",
		"crontab" : "",
		"once" : false,
		"x" : 97,
		"y" : 382.4000244140625,
		"wires" : [["294ba0e8.bc2708"]]
	}, {
		"id" : "e5e1e43f.d7254",
		"type" : "inject",
		"z" : "597316df.105498",
		"name" : "InjectHooked",
		"topic" : "hooked",
		"payload" : "{\"hooked\": false}",
		"payloadType" : "json",
		"repeat" : "",
		"crontab" : "",
		"once" : false,
		"x" : 99,
		"y" : 505.4000549316406,
		"wires" : [["b714791a.39f4c"]]
	}, {
		"id" : "11eb1771.b43ef9",
		"type" : "debug",
		"z" : "597316df.105498",
		"name" : "",
		"active" : false,
		"console" : "false",
		"complete" : "payload.status",
		"x" : 471.5,
		"y" : 655.7999877929688,
		"wires" : []
	}, {
		"id" : "a76d6b2d.faf9e",
		"type" : "debug",
		"z" : "597316df.105498",
		"name" : "",
		"active" : false,
		"console" : "false",
		"complete" : "payload",
		"x" : 455.5,
		"y" : 580.7999877929688,
		"wires" : []
	}
]
